<?xml version="1.0" standalone="no"?>
<!DOCTYPE svg PUBLIC "-//W3C//DTD SVG 20010904//EN"
 "http://www.w3.org/TR/2001/REC-SVG-20010904/DTD/svg10.dtd">
<svg version="1.0" xmlns="http://www.w3.org/2000/svg"
 width="32.000000pt" height="32.000000pt" viewBox="0 0 32.000000 32.000000"
 preserveAspectRatio="xMidYMid meet" sytle="background-color: white;">

<g transform="translate(0.000000,32.000000) scale(0.100000,-0.100000)"
fill="#000000" stroke="none">
<path d="M133 248 c-19 -33 -21 -44 -11 -56 7 -8 15 -45 19 -83 10 -110 28
-110 38 0 4 38 12 75 19 83 10 12 8 23 -11 56 -12 23 -24 42 -27 42 -3 0 -15
-19 -27 -42z m52 -28 c4 -6 -7 -10 -25 -10 -18 0 -29 4 -25 10 3 6 15 10 25
10 10 0 22 -4 25 -10z"/>
<path d="M86 164 c-3 -9 -12 -14 -21 -10 -12 4 -15 -3 -15 -33 0 -42 18 -65
47 -59 15 3 18 13 18 57 0 54 -16 79 -29 45z"/>
<path d="M207 173 c-4 -3 -7 -28 -7 -55 0 -36 4 -50 16 -55 28 -11 49 11 52
55 3 34 0 41 -12 36 -9 -4 -18 0 -22 10 -7 17 -16 20 -27 9z"/>
</g>
</svg>
